Factors or so-called grouping variables
…
##Acces the levels of factor If you ever need to access the set of valid levels directly, you can do so with levels():

levels(f2)

## [1] "Dec" "Apr" "Jan" "Mar"

General Social Survey

For the rest of this lesson, were going to focus on forcats::gss_cat. Its a sample of data from the General Social Survey, which is a long-running US survey conducted by the independent research organization NORC at the University of Chicago.

gss_cat

## # A tibble: 21,483 x 9
##     year marital     age race  rincome   partyid    relig   denom   tvhours
##    <int> <fct>     <int> <fct> <fct>     <fct>      <fct>   <fct>     <int>
##  1  2000 Never ma~    26 White $8000 to~ Ind,near ~ Protes~ Southe~      12
##  2  2000 Divorced     48 White $8000 to~ Not str r~ Protes~ Baptis~      NA
##  3  2000 Widowed      67 White Not appl~ Independe~ Protes~ No den~       2
##  4  2000 Never ma~    39 White Not appl~ Ind,near ~ Orthod~ Not ap~       4
##  5  2000 Divorced     25 White Not appl~ Not str d~ None    Not ap~       1
##  6  2000 Married      25 White $20000 -~ Strong de~ Protes~ Southe~      NA
##  7  2000 Never ma~    36 White $25000 o~ Not str r~ Christ~ Not ap~       3
##  8  2000 Divorced     44 White $7000 to~ Ind,near ~ Protes~ Luther~      NA
##  9  2000 Married      44 White $25000 o~ Not str d~ Protes~ Other         0
## 10  2000 Married      47 White $25000 o~ Strong re~ Protes~ Southe~       3
## # ... with 21,473 more rows
…
