…
Long format
-----------

``` r
rexam_long <- rexam %>%
  gather(exam:numeracy, key = "measure", value = "value")
rexam_long
```

    ## # A tibble: 400 x 3
    ##    uni                  measure value
    ##    <fct>                <chr>   <dbl>
    ##  1 duncetown_university exam       18
    ##  2 duncetown_university exam       30
    ##  3 duncetown_university exam       40
    ##  4 duncetown_university exam       30
    ##  5 duncetown_university exam       40
    ##  6 duncetown_university exam       15
    ##  7 duncetown_university exam       36
    ##  8 duncetown_university exam       40
    ##  9 duncetown_university exam       63
    ## 10 duncetown_university exam       31
    ## # … with 390 more rows
…
